 [
  {
    "url": "http://www.mens-hairstylists.com/wp-content/uploads/2015/05/Short-Little-Boys-Haircuts-1.jpg",
    "name": "Business Class Boy Haircut"
  },

  {
    "url": "http://www.mens-hairstylists.com/wp-content/uploads/2015/05/Short-Little-Boys-Haircuts-2.jpg",
    "name": "Side-swept Boy Haircut"
  },

  {
    "url": "http://www.mens-hairstylists.com/wp-content/uploads/2015/05/Short-Little-Boys-Haircuts-3.jpg",
    "name": "Little Johnny Bravo Haircut"
  },

  {
    "url": "http://www.mens-hairstylists.com/wp-content/uploads/2015/05/Short-Little-Boys-Haircuts-4.jpg",
    "name": "Classic Curly Whimsy Boy Haircut"
  },

  {
    "url": "http://www.mens-hairstylists.com/wp-content/uploads/2015/05/Short-Little-Boys-Haircuts-5.jpg",
    "name": "Frills-free Clean Cut for Kids"
  },

  {
    "url": "http://www.mens-hairstylists.com/wp-content/uploads/2015/05/Short-Little-Boys-Haircuts-6.jpg",
    "name": "Faux Hawk for Cute Kids"
  },

  {
    "url": "http://www.mens-hairstylists.com/wp-content/uploads/2015/05/Short-Little-Boys-Haircuts-7.jpg",
    "name": "Hipster Little Kid Haircut"
  },

  {
    "url": "http://www.mens-hairstylists.com/wp-content/uploads/2015/05/Short-Little-Boys-Haircuts-8.jpg",
    "name": "Short Pompadour"
  },

  {
    "url": "http://www.mens-hairstylists.com/wp-content/uploads/2015/05/Short-Little-Boys-Haircuts-9.jpg",
    "name": "Skater High Haircut for Cuties"
  },

  {
    "url": "http://www.mens-hairstylists.com/wp-content/uploads/2015/05/Short-Little-Boys-Haircuts-10.jpg",
    "name": "Textured Little Men Haircut"
  },

  {
    "url": "http://www.mens-hairstylists.com/wp-content/uploads/2015/05/Short-Little-Boys-Haircuts-12.jpg",
    "name": "Cropped Haircut for Little Angels"
  },

   {
     "url": "http://www.mens-hairstylists.com/wp-content/uploads/2015/05/Short-Little-Boys-Haircuts-13.jpg",
     "name": "Tapered Faux Hawk for Young Boys"
   },

   {
     "url": "http://www.mens-hairstylists.com/wp-content/uploads/2015/05/Short-Little-Boys-Haircuts-14.jpg",
     "name": "Undercut with Short Blinders Hairstyle"
   },

   {
     "url": "http://www.mens-hairstylists.com/wp-content/uploads/2015/05/Short-Little-Boys-Haircuts-15.jpg",
     "name": "Spiky Haircut for Lil Man"
   },

   {
     "url": "http://www.mens-hairstylists.com/wp-content/uploads/2015/05/Short-Little-Boys-Haircuts-16.jpg",
     "name": "Red Head Natural Curls"
   },

   {
     "url": "http://www.mens-hairstylists.com/wp-content/uploads/2015/05/Short-Little-Boys-Haircuts-17.jpg",
     "name": "Smooth Hipster Haircut for Kids"
   },

   {
     "url": "http://www.mens-hairstylists.com/wp-content/uploads/2015/05/Stylish-Boy-Haircuts-16.jpg",
     "name": "Long Shaggy Boy Haircut"
   },

   {
     "url": "http://www.mens-hairstylists.com/wp-content/uploads/2015/05/Stylish-Boy-Haircuts-15.jpg",
     "name": "Hipster Updo for Cute Boys"
   },

   {
     "url": "http://www.mens-hairstylists.com/wp-content/uploads/2015/05/Stylish-Boy-Haircuts-14.jpg",
     "name": "Modified Surfer Haircut for Kiddies"
   },

   {
     "url": "http://www.mens-hairstylists.com/wp-content/uploads/2015/05/Stylish-Boy-Haircuts-13.jpg",
     "name": "Worn-down Mohawk for Rock star Kids"
   },

   {
     "url": "http://www.mens-hairstylists.com/wp-content/uploads/2015/05/Stylish-Boy-Haircuts-12.jpg",
     "name": "Fly Away Beachy Haircut"
   },

   {
     "url": "http://www.mens-hairstylists.com/wp-content/uploads/2015/05/Stylish-Boy-Haircuts-11.jpg",
     "name": "Choppy Kiddie Haircut"
   },

   {
     "url": "http://www.mens-hairstylists.com/wp-content/uploads/2015/05/Stylish-Boy-Haircuts-10.jpg",
     "name": "Piecey Fringe for Les Garçons"
   },

   {
     "url": "http://www.mens-hairstylists.com/wp-content/uploads/2015/05/Stylish-Boy-Haircuts-9.jpg",
     "name": "Messy Whimsy Curly Boy Haircut"
   },
   {
     "url": "http://www.mens-hairstylists.com/wp-content/uploads/2015/05/Stylish-Boy-Haircuts-8.jpg",
     "name": "Long Moppy Rockstar Kid Haircut"
   },

   {
     "url": "http://www.mens-hairstylists.com/wp-content/uploads/2015/05/Stylish-Boy-Haircuts-7.jpg",
     "name": "Clean Sleek Haircut"
   },

   {
     "url": "http://www.mens-hairstylists.com/wp-content/uploads/2015/05/Stylish-Boy-Haircuts-6.jpg",
     "name": "Layered Shaggy Haircut for Kids"
   },

   {
     "url": "http://www.mens-hairstylists.com/wp-content/uploads/2015/05/Stylish-Boy-Haircuts-5.jpg",
     "name": "Deconstructed Shaggy Hairstyle"
   },


   {
     "url": "http://www.mens-hairstylists.com/wp-content/uploads/2015/05/Stylish-Boy-Haircuts-4.jpg",
     "name": "Messy Bangs Haircut"
   },

   {
     "url": "http://www.mens-hairstylists.com/wp-content/uploads/2015/05/Stylish-Boy-Haircuts-3.jpg",
     "name": "Redhead Long Fringe Boy Haircut"
   },

   {
     "url": "http://www.mens-hairstylists.com/wp-content/uploads/2015/05/Stylish-Boy-Haircuts-1.jpg",
     "name": "Simple Bangs Haircut"
   },

   {
     "url": "http://www.ukhairdressers.com/Childrens%20Hair%20Gallery/Boys/Long%20Male/LongBrownHairBoy13.jpg",
     "name": "A Long Brown European Boys Hairstyle"
   },

   {
     "url": "http://www.ukhairdressers.com/Childrens%20Hair%20Gallery/Boys/Long%20Male/LongBrownHairBoy5.jpg",
     "name": "A Long Brown European Boys Hairstyle"
   },

   {
     "url": "http://www.ukhairdressers.com/Childrens%20Hair%20Gallery/Boys/Long%20Male/LongBlondeBoy3.jpg",
     "name": "A Long Blonde European Boys Hairstyle"
   }


]
